error	18/03/2022 20:22:08		Pembuat Kubah Masjid Belitung | 081213985160	F:\tools\ytb_upload_kevin\1.mp4		[Errno 2] No such file or directory: 'F:\\tools\\ytb_upload_kevin\\akun.json'
error	18/03/2022 20:22:14		Pembuat Kubah Masjid Belitung | 081213985160	F:\tools\ytb_upload_kevin\1.mp4		[Errno 2] No such file or directory: 'F:\\tools\\ytb_upload_kevin\\akun.json'
error	18/03/2022 20:22:21		Pembuat Kubah Masjid Belitung | 081213985160	F:\tools\ytb_upload_kevin\1.mp4		[Errno 2] No such file or directory: 'F:\\tools\\ytb_upload_kevin\\akun.json'
error	18/03/2022 20:23:33		Pembuat Kubah Masjid Belitung | 081213985160	E:\tools\ytb_upload_kevin\1.mp4		name 'domain_to_url' is not defined
error	18/03/2022 20:23:39		Pembuat Kubah Masjid Belitung | 081213985160	E:\tools\ytb_upload_kevin\1.mp4		name 'domain_to_url' is not defined
error	18/03/2022 20:23:46		Pembuat Kubah Masjid Belitung | 081213985160	E:\tools\ytb_upload_kevin\1.mp4		name 'domain_to_url' is not defined
error	18/03/2022 20:24:12		Pembuat Kubah Masjid Belitung | 081213985160	E:\tools\ytb_upload_kevin\1.mp4		name 'domain_to_url' is not defined
error	18/03/2022 20:48:36		Pembuat Kubah Masjid Belitung | 081213985160	E:\tools\ytb_upload_kevin\1.mp4		Message: no such window: target window already closedfrom unknown error: web view not found  (Session info: chrome=99.0.4844.74)
error	18/03/2022 20:49:44		Pembuat Kubah Masjid Belitung | 081213985160	E:\tools\ytb_upload_kevin\1.mp4		Message: unknown error: cannot determine loading statusfrom disconnected: received Inspector.detached event  (Session info: chrome=99.0.4844.74)
error	18/03/2022 20:50:58		Pembuat Kubah Masjid Belitung | 081213985160	E:\tools\ytb_upload_kevin\1.mp4		Message: chrome not reachable  (Session info: chrome=99.0.4844.74)
error	18/03/2022 21:00:42		Pembuat Kubah Masjid Belitung | 081213985160	E:\tools\ytb_upload_kevin\1.mp4		Message: chrome not reachable  (Session info: chrome=99.0.4844.74)
error	18/03/2022 22:51:10		Pembuat Kubah Masjid Belitung | 081213985160	E:\tools\ytb_upload_kevin\1.mp4		Alert Text: {Alert text : Message: unexpected alert open: {Alert text : }  (Session info: chrome=99.0.4844.74)
error	18/03/2022 22:51:24		Pembuat Kubah Masjid Belitung | 081213985160	E:\tools\ytb_upload_kevin\1.mp4		Message: no such window: target window already closedfrom unknown error: web view not found  (Session info: chrome=99.0.4844.74)
error	18/03/2022 22:52:13		Pembuat Kubah Masjid Belitung | 081213985160	E:\tools\ytb_upload_kevin\1.mp4		Message: chrome not reachable  (Session info: chrome=99.0.4844.74)
error	18/03/2022 22:52:17		Pembuat Kubah Masjid Belitung | 081213985160	E:\tools\ytb_upload_kevin\1.mp4		Message: unknown error: cannot determine loading statusfrom disconnected: received Inspector.detached event  (Session info: chrome=99.0.4844.74)
error	18/03/2022 22:52:23		Pembuat Kubah Masjid Belitung | 081213985160	E:\tools\ytb_upload_kevin\1.mp4		Message: unknown error: cannot determine loading statusfrom disconnected: received Inspector.detached event  (Session info: chrome=99.0.4844.74)
error	18/03/2022 22:52:30		Pembuat Kubah Masjid Belitung | 081213985160	E:\tools\ytb_upload_kevin\1.mp4		Message: unknown error: cannot determine loading statusfrom disconnected: received Inspector.detached event  (Session info: chrome=99.0.4844.74)
error	18/03/2022 22:56:25		Pembuat Kubah Masjid Belitung | 081213985160	E:\tools\ytb_upload_kevin\1.mp4		Message: unknown error: cannot determine loading statusfrom disconnected: received Inspector.detached event  (Session info: chrome=99.0.4844.74)
